<svg width="192" height="41" viewBox="0 0 192 41" fill="none" xmlns="http://www.w3.org/2000/svg">
<circle cx="20.1411" cy="20.1411" r="20.1411" fill="black"/>
<circle cx="20.1413" cy="20.1411" r="10.986" fill="white"/>
<path d="M25.6345 23.28C25.6345 24.3263 25.1731 25.2889 24.2502 26.1678C23.3421 27.0327 22.3387 27.4652 21.2401 27.4652H19.0429C17.9442 27.4652 16.9335 27.0327 16.0107 26.1678C15.1025 25.2889 14.6484 24.3263 14.6484 23.28C14.6484 22.0942 15.2051 21.0479 16.3183 20.1412C15.2051 19.2344 14.6484 18.1881 14.6484 17.0023C14.6484 15.956 15.1025 15.0004 16.0107 14.1355C16.9335 13.2566 17.9442 12.8171 19.0429 12.8171H21.2401C22.3387 12.8171 23.3421 13.2566 24.2502 14.1355C25.1731 15.0004 25.6345 15.956 25.6345 17.0023C25.6345 18.1881 25.0778 19.2344 23.9646 20.1412C25.0778 21.0479 25.6345 22.0942 25.6345 23.28ZM23.4373 17.0023C23.4373 16.4722 23.2102 15.9909 22.7561 15.5584C22.302 15.126 21.7967 14.9097 21.2401 14.9097H19.0429C18.4862 14.9097 17.9809 15.126 17.5268 15.5584C17.0727 15.9909 16.8456 16.4722 16.8456 17.0023C16.8456 17.5324 17.0727 18.0137 17.5268 18.4462C17.9809 18.8786 18.4862 19.0949 19.0429 19.0949H21.2401C21.7967 19.0949 22.302 18.8786 22.7561 18.4462C23.2102 18.0137 23.4373 17.5324 23.4373 17.0023ZM23.4373 23.28C23.4373 22.7499 23.2102 22.2686 22.7561 21.8362C22.302 21.4037 21.7967 21.1875 21.2401 21.1875H19.0429C18.4862 21.1875 17.9809 21.4037 17.5268 21.8362C17.0727 22.2686 16.8456 22.7499 16.8456 23.28C16.8456 23.8102 17.0727 24.2914 17.5268 24.7239C17.9809 25.1564 18.4862 25.3726 19.0429 25.3726H21.2401C21.7967 25.3726 22.302 25.1564 22.7561 24.7239C23.2102 24.2914 23.4373 23.8102 23.4373 23.28Z" fill="black"/>
<path d="M56.422 20.2711V27.288H54.083V10.9153H61.0999C62.2694 10.9153 63.3375 11.4065 64.3043 12.3888C65.2866 13.3556 65.7778 14.4237 65.7778 15.5932C65.7778 17.1369 65.2944 18.3298 64.3277 19.1718C63.47 19.9047 62.3941 20.2711 61.0999 20.2711C61.0999 20.2711 59.5406 20.2711 56.422 20.2711ZM63.4389 15.5932C63.4389 15.0007 63.1972 14.4627 62.7138 13.9793C62.2304 13.4959 61.6924 13.2542 61.0999 13.2542H56.422V17.9322H61.0999C61.6924 17.9322 62.2304 17.6905 62.7138 17.2071C63.1972 16.7237 63.4389 16.1857 63.4389 15.5932Z" fill="black"/>
<path d="M79.8025 22.6101C79.8025 23.7796 79.3113 24.8555 78.3289 25.8379C77.3621 26.8046 76.294 27.288 75.1245 27.288H72.7856C71.6161 27.288 70.5402 26.8046 69.5578 25.8379C68.591 24.8555 68.1076 23.7796 68.1076 22.6101V20.2711C68.1076 19.1017 68.591 18.0335 69.5578 17.0668C70.5402 16.0844 71.6161 15.5932 72.7856 15.5932H75.1245C76.294 15.5932 77.3621 16.0844 78.3289 17.0668C79.3113 18.0335 79.8025 19.1017 79.8025 20.2711V22.6101ZM77.4635 22.6101V20.2711C77.4635 19.6786 77.2218 19.1406 76.7384 18.6573C76.255 18.1739 75.7171 17.9322 75.1245 17.9322H72.7856C72.2086 17.9322 71.6707 18.1739 71.1717 18.6573C70.6883 19.1406 70.4466 19.6786 70.4466 20.2711V22.6101C70.4466 23.187 70.6883 23.725 71.1717 24.224C71.6707 24.7074 72.2086 24.9491 72.7856 24.9491H75.1245C75.7171 24.9491 76.255 24.7074 76.7384 24.224C77.2218 23.725 77.4635 23.187 77.4635 22.6101Z" fill="black"/>
<path d="M93.8271 23.7796C93.8271 24.6528 93.4607 25.4558 92.7278 26.1887C91.9949 26.9216 91.1919 27.288 90.3187 27.288C89.4766 27.288 88.697 26.945 87.9797 26.2589C87.2624 26.945 86.4828 27.288 85.6407 27.288C84.7675 27.288 83.9645 26.9216 83.2316 26.1887C82.4987 25.4558 82.1323 24.6528 82.1323 23.7796V15.5932H84.4713V23.7796C84.4713 24.0758 84.5882 24.3487 84.8221 24.5982C85.0716 24.8321 85.3445 24.9491 85.6407 24.9491C85.937 24.9491 86.2021 24.8321 86.436 24.5982C86.6855 24.3487 86.8102 24.0758 86.8102 23.7796V20.2711H89.1492V23.7796C89.1492 24.0758 89.2661 24.3487 89.5 24.5982C89.7495 24.8321 90.0224 24.9491 90.3187 24.9491C90.6149 24.9491 90.88 24.8321 91.1139 24.5982C91.3634 24.3487 91.4881 24.0758 91.4881 23.7796V15.5932H93.8271V23.7796Z" fill="black"/>
<path d="M107.852 22.6101H98.4959C98.4959 23.1714 98.7454 23.7016 99.2444 24.2006C99.7433 24.6996 100.274 24.9491 100.835 24.9491H105.513V27.288H100.835C99.6654 27.288 98.5894 26.8046 97.6071 25.8379C96.6403 24.8555 96.1569 23.7796 96.1569 22.6101V20.2711C96.1569 19.1017 96.6403 18.0335 97.6071 17.0668C98.5894 16.0844 99.6654 15.5932 100.835 15.5932H103.174C104.515 15.5932 105.661 16.1546 106.612 17.2773C107.439 18.2596 107.852 19.2576 107.852 20.2711V22.6101ZM105.513 20.2711C105.513 19.6786 105.271 19.1406 104.788 18.6573C104.304 18.1739 103.766 17.9322 103.174 17.9322H100.835C100.242 17.9634 99.7044 18.2206 99.221 18.704C98.7376 19.1718 98.4959 19.6942 98.4959 20.2711H105.513Z" fill="black"/>
<path d="M121.876 17.9322H119.537C118.368 17.9322 117.292 18.4234 116.31 19.4057C115.343 20.3725 114.859 21.4406 114.859 22.6101V27.288H112.521V15.5932H114.859V17.6515C116.294 16.2793 117.853 15.5932 119.537 15.5932H121.876V17.9322Z" fill="black"/>
<path d="M133.562 27.288H126.545V24.9491H128.884V13.2542H126.545V10.9153H133.562V13.2542H131.223V24.9491H133.562V27.288Z" fill="black"/>
<path d="M149.926 27.288H147.587V20.2711C147.587 19.6786 147.345 19.1406 146.862 18.6573C146.378 18.1739 145.84 17.9322 145.248 17.9322H140.57V27.288H138.231V15.5932H145.248C146.417 15.5932 147.485 16.0844 148.452 17.0668C149.434 18.0335 149.926 19.1017 149.926 20.2711V27.288Z" fill="black"/>
<path d="M152.255 20.2711C152.255 19.1017 152.739 18.0335 153.706 17.0668C154.688 16.0844 155.764 15.5932 156.933 15.5932H161.611V10.9153H163.95V27.288H156.933C155.764 27.288 154.688 26.8046 153.706 25.8379C152.739 24.8555 152.255 23.7796 152.255 22.6101V20.2711ZM161.611 24.9491V17.9322H156.933C156.341 17.9634 155.803 18.2206 155.32 18.704C154.836 19.1718 154.594 19.6942 154.594 20.2711V22.6101C154.594 23.1714 154.844 23.7016 155.343 24.2006C155.842 24.6996 156.372 24.9491 156.933 24.9491H161.611Z" fill="black"/>
<path d="M177.975 22.6101H168.619C168.619 23.1714 168.869 23.7016 169.368 24.2006C169.867 24.6996 170.397 24.9491 170.958 24.9491H175.636V27.288H170.958C169.789 27.288 168.713 26.8046 167.73 25.8379C166.764 24.8555 166.28 23.7796 166.28 22.6101V20.2711C166.28 19.1017 166.764 18.0335 167.73 17.0668C168.713 16.0844 169.789 15.5932 170.958 15.5932H173.297C174.638 15.5932 175.784 16.1546 176.735 17.2773C177.562 18.2596 177.975 19.2576 177.975 20.2711V22.6101ZM175.636 20.2711C175.636 19.6786 175.394 19.1406 174.911 18.6573C174.428 18.1739 173.89 17.9322 173.297 17.9322H170.958C170.366 17.9634 169.828 18.2206 169.344 18.704C168.861 19.1718 168.619 19.6942 168.619 20.2711H175.636Z" fill="black"/>
<path d="M192 27.288H190.245L186.152 23.1948L182.059 27.288H180.305V25.5338L184.398 21.4406L180.305 17.3474V15.5932H182.059L186.152 19.6864L190.245 15.5932H192V17.3474L187.906 21.4406L192 25.5338V27.288Z" fill="black"/>
</svg>
